EDA with R
…
Multiple Line

各縣市各月份交易量比較

table = data %>% 
  group_by(city, trac_month) %>% 
  summarise(Count = n()) 
table

# A tibble: 48 x 3
# Groups:   city [?]
     city trac_month Count
   <fctr>     <fctr> <int>
 1 新北市          1  3664
 2 新北市          2  2714
 3 新北市          3  5328
 4 新北市          4  5350
 5 新北市          5  5656
 6 新北市          6  4999
 7 新北市          7  5636
 8 新北市          8  4149
 9 新北市          9  3951
10 新北市         10  5346
# ... with 38 more rows
…
